%YAML 1.1
%TAG !u! tag:unity3d.com,2011:
--- !u!1045 &1
EditorBuildSettings:
  m_ObjectHideFlags: 0
  serializedVersion: 2
  m_Scenes:
  - enabled: 1
    path: Assets/Scenes/Start.unity
    guid: f23603c3b151b1943afe0181f0591103
  - enabled: 1
    path: Assets/Scenes/Fishing.unity
    guid: f37c62dddc58fcd4ca9228a38e8a571b
  m_configObjects: {}
